[gd_scene load_steps=3 format=2]

[ext_resource path="res://Env/Chest/chest.dae" type="PackedScene" id=1]
[ext_resource path="res://Env/chest.gd" type="Script" id=2]

[node name="chest" instance=ExtResource( 1 )]
script = ExtResource( 2 )
