[gd_scene load_steps=8 format=2]

[ext_resource path="res://FX/Fireball.gd" type="Script" id=1]
[ext_resource path="res://FX/fireball_mat.tres" type="Material" id=2]
[ext_resource path="res://sound/wind2.ogg" type="AudioStream" id=3]

[sub_resource type="QuadMesh" id=1]

[sub_resource type="Curve" id=2]
_data = [ Vector2( 0.0537602, 0.6584 ), 0.0, 0.185332, 0, 0, Vector2( 0.33409, 1 ), 0.0, 0.0, 0, 0, Vector2( 1, 0 ), -2.62051, 0.0, 0, 0 ]

[sub_resource type="Gradient" id=3]
offsets = PoolRealArray( 0, 0.192053, 0.993378 )
colors = PoolColorArray( 1, 1, 1, 1, 0.523438, 0.944153, 1, 1, 1, 0.952941, 0.470588, 0.172549 )

[sub_resource type="Animation" id=4]
length = 2.0
tracks/0/type = "value"
tracks/0/path = NodePath("Fireball:translation")
tracks/0/interp = 2
tracks/0/loop_wrap = true
tracks/0/imported = false
tracks/0/enabled = true
tracks/0/keys = {
"times": PoolRealArray( 0, 0.3, 0.8, 1 ),
"transitions": PoolRealArray( 1, 1, 1, 1 ),
"update": 0,
"values": [ Vector3( 0, 0, 0 ), Vector3( 0.6, 0, -2 ), Vector3( -0.405, 0, -3 ), Vector3( 0, 0, -4 ) ]
}
tracks/1/type = "method"
tracks/1/path = NodePath(".")
tracks/1/interp = 1
tracks/1/loop_wrap = true
tracks/1/imported = false
tracks/1/enabled = true
tracks/1/keys = {
"times": PoolRealArray( 1, 2 ),
"transitions": PoolRealArray( 1, 1 ),
"values": [ {
"args": [  ],
"method": "end"
}, {
"args": [  ],
"method": "die"
} ]
}
tracks/2/type = "value"
tracks/2/path = NodePath("Fireball:emitting")
tracks/2/interp = 1
tracks/2/loop_wrap = true
tracks/2/imported = false
tracks/2/enabled = true
tracks/2/keys = {
"times": PoolRealArray( 0, 0.7 ),
"transitions": PoolRealArray( 1, 1 ),
"update": 1,
"values": [ true, false ]
}
tracks/3/type = "audio"
tracks/3/path = NodePath("AudioStreamPlayer")
tracks/3/interp = 1
tracks/3/loop_wrap = true
tracks/3/imported = false
tracks/3/enabled = true
tracks/3/keys = {
"clips": [ {
"end_offset": 4.2,
"start_offset": 0.0,
"stream": ExtResource( 3 )
} ],
"times": PoolRealArray( 0 )
}

[node name="Fireball" type="Spatial"]
script = ExtResource( 1 )

[node name="Fireball" type="CPUParticles" parent="."]
material_override = ExtResource( 2 )
amount = 16
lifetime = 0.2
local_coords = false
mesh = SubResource( 1 )
gravity = Vector3( 0, 0, 0 )
angle = 232.3
angle_random = 0.49
scale_amount_curve = SubResource( 2 )
color_ramp = SubResource( 3 )

[node name="AnimationPlayer" type="AnimationPlayer" parent="."]
anims/Fire = SubResource( 4 )

[node name="AudioStreamPlayer" type="AudioStreamPlayer" parent="."]
stream = ExtResource( 3 )
bus = "Effects"
