[gd_scene load_steps=5 format=2]

[ext_resource path="res://FX/Fireball.gd" type="Script" id=1]
[ext_resource path="res://FX/LightningVeryLight.tscn" type="PackedScene" id=2]
[ext_resource path="res://sound/wind2.ogg" type="AudioStream" id=3]

[sub_resource type="Animation" id=1]
tracks/0/type = "method"
tracks/0/path = NodePath(".")
tracks/0/interp = 1
tracks/0/loop_wrap = true
tracks/0/imported = false
tracks/0/enabled = true
tracks/0/keys = {
"times": PoolRealArray( 0.4, 1, 2 ),
"transitions": PoolRealArray( 1, 1, 1 ),
"values": [ {
"args": [  ],
"method": "end"
}, {
"args": [  ],
"method": "die"
}, {
"args": [  ],
"method": "die"
} ]
}
tracks/1/type = "audio"
tracks/1/path = NodePath("AudioStreamPlayer")
tracks/1/interp = 1
tracks/1/loop_wrap = true
tracks/1/imported = false
tracks/1/enabled = true
tracks/1/keys = {
"clips": [ {
"end_offset": 4.2,
"start_offset": 0.0,
"stream": ExtResource( 3 )
} ],
"times": PoolRealArray( 0 )
}

[node name="Zap" type="Spatial"]
script = ExtResource( 1 )

[node name="AnimationPlayer" type="AnimationPlayer" parent="."]
anims/Fire = SubResource( 1 )

[node name="AudioStreamPlayer" type="AudioStreamPlayer" parent="."]
stream = ExtResource( 3 )
bus = "Effects"

[node name="LightningVeryLight" parent="." instance=ExtResource( 2 )]
transform = Transform( 1, 0, 0, 0, 1, 0, 0, 0, 1, 0.243829, 0, 0 )
