[gd_scene load_steps=3 format=2]

[ext_resource path="res://UI/coin.png" type="Texture" id=1]

[sub_resource type="Animation" id=1]
resource_name = "Run"
length = 0.5
step = 0.05
tracks/0/type = "value"
tracks/0/path = NodePath("Coin:position")
tracks/0/interp = 1
tracks/0/loop_wrap = true
tracks/0/imported = false
tracks/0/enabled = true
tracks/0/keys = {
"times": PoolRealArray( 0, 0.25, 0.4, 0.5 ),
"transitions": PoolRealArray( 1, 1, 1, 1 ),
"update": 0,
"values": [ Vector2( 0, 0 ), Vector2( 0.530895, -48.1751 ), Vector2( 22.2477, -32.3384 ), Vector2( 4.30395, -10.9734 ) ]
}
tracks/1/type = "value"
tracks/1/path = NodePath("Coin2:position")
tracks/1/interp = 1
tracks/1/loop_wrap = true
tracks/1/imported = false
tracks/1/enabled = true
tracks/1/keys = {
"times": PoolRealArray( 0, 0.25, 0.4, 0.5 ),
"transitions": PoolRealArray( 1, 1, 1, 1 ),
"update": 0,
"values": [ Vector2( 0, 0 ), Vector2( -40.9749, -10.7395 ), Vector2( -26.654, -25.6128 ), Vector2( -6.29959, -3.10674 ) ]
}
tracks/2/type = "value"
tracks/2/path = NodePath("Coin3:position")
tracks/2/interp = 1
tracks/2/loop_wrap = true
tracks/2/imported = false
tracks/2/enabled = true
tracks/2/keys = {
"times": PoolRealArray( 0, 0.25, 0.5 ),
"transitions": PoolRealArray( 1, 1, 1 ),
"update": 0,
"values": [ Vector2( 0, 0 ), Vector2( 46.9499, 0.221588 ), Vector2( 19.3303, 3.68533 ) ]
}
tracks/3/type = "value"
tracks/3/path = NodePath("Coin4:position")
tracks/3/interp = 1
tracks/3/loop_wrap = true
tracks/3/imported = false
tracks/3/enabled = true
tracks/3/keys = {
"times": PoolRealArray( 0, 0.25, 0.4, 0.5 ),
"transitions": PoolRealArray( 1, 1, 1, 1 ),
"update": 0,
"values": [ Vector2( 0, 0 ), Vector2( 18.0226, 38.0663 ), Vector2( 20.8388, 33.6719 ), Vector2( 4.70425, 14.5316 ) ]
}
tracks/4/type = "value"
tracks/4/path = NodePath("Coin5:position")
tracks/4/interp = 1
tracks/4/loop_wrap = true
tracks/4/imported = false
tracks/4/enabled = true
tracks/4/keys = {
"times": PoolRealArray( 0, 0.25, 0.4, 0.5 ),
"transitions": PoolRealArray( 1, 1, 1, 1 ),
"update": 0,
"values": [ Vector2( 0, 0 ), Vector2( -31.0088, 31.3806 ), Vector2( -27.2432, 27.4057 ), Vector2( -5.82019, 13.0481 ) ]
}
tracks/5/type = "method"
tracks/5/path = NodePath(".")
tracks/5/interp = 1
tracks/5/loop_wrap = true
tracks/5/imported = false
tracks/5/enabled = true
tracks/5/keys = {
"times": PoolRealArray( 0.5 ),
"transitions": PoolRealArray( 1 ),
"values": [ {
"args": [  ],
"method": "queue_free"
} ]
}

[node name="Coins" type="Node2D"]
position = Vector2( 0, -0.440132 )
z_index = 1
z_as_relative = false

[node name="Coin" type="Sprite" parent="."]
position = Vector2( 4.30395, -10.9734 )
texture = ExtResource( 1 )

[node name="Coin2" type="Sprite" parent="."]
position = Vector2( -6.29959, -3.10674 )
texture = ExtResource( 1 )

[node name="Coin3" type="Sprite" parent="."]
position = Vector2( 19.3303, 3.68533 )
texture = ExtResource( 1 )

[node name="Coin4" type="Sprite" parent="."]
position = Vector2( 4.70425, 14.5316 )
texture = ExtResource( 1 )

[node name="Coin5" type="Sprite" parent="."]
position = Vector2( -5.82019, 13.0481 )
texture = ExtResource( 1 )

[node name="AnimationPlayer" type="AnimationPlayer" parent="."]
autoplay = "Run"
anims/Run = SubResource( 1 )
