[gd_scene load_steps=3 format=2]

[ext_resource path="res://UI/theme.tres" type="Theme" id=1]
[ext_resource path="res://UI/SpellBook.gd" type="Script" id=2]

[node name="SpellBook" type="Control"]
anchor_right = 1.0
anchor_bottom = 1.0
theme = ExtResource( 1 )
script = ExtResource( 2 )
__meta__ = {
"_edit_use_anchors_": false
}

[node name="ColorRect" type="ColorRect" parent="."]
anchor_right = 1.0
anchor_bottom = 1.0
color = Color( 0, 0, 0, 0.933333 )
__meta__ = {
"_edit_use_anchors_": false
}

[node name="Spells" type="ScrollContainer" parent="."]
anchor_right = 1.0
anchor_bottom = 1.0
margin_bottom = -76.0
__meta__ = {
"_edit_use_anchors_": false
}

[node name="Cont" type="VBoxContainer" parent="Spells"]
margin_right = 600.0
margin_bottom = 250.0
size_flags_horizontal = 3

[node name="Spell" parent="Spells/Cont" instance_placeholder="res://UI/SpellInBook.tscn"]
margin_right = 600.0

[node name="Button" type="Button" parent="."]
anchor_left = 0.5
anchor_top = 1.0
anchor_right = 0.5
anchor_bottom = 1.0
margin_left = -78.5
margin_top = -69.0
margin_right = 78.5
text = "Back"
[connection signal="pressed" from="Button" to="." method="hide"]
