[gd_scene format=2]

[node name="Spell" type="HBoxContainer"]
margin_right = 540.0
margin_bottom = 250.0
__meta__ = {
"_edit_use_anchors_": false
}

[node name="Image" type="TextureRect" parent="."]
margin_right = 150.0
margin_bottom = 250.0
rect_min_size = Vector2( 150, 250 )
expand = true
stretch_mode = 6

[node name="Descr" type="VBoxContainer" parent="."]
margin_left = 154.0
margin_right = 540.0
margin_bottom = 250.0
size_flags_horizontal = 3

[node name="Name" type="Label" parent="Descr"]
margin_right = 386.0
margin_bottom = 14.0
text = "SpellName"
align = 1
valign = 1
autowrap = true
uppercase = true

[node name="Descr" type="Label" parent="Descr"]
margin_top = 18.0
margin_right = 386.0
margin_bottom = 250.0
size_flags_vertical = 3
text = "SpellName
"
align = 1
autowrap = true
